Chapter 4 Tidy Data | Data Skills for Reproducible Science
…
4.8.5 Columns by Year

Spread out the maternal mortality rate by year.

matmort_wide <- matmort2 %>%
  spread(key = Year, value = rate) %>%
  print()

## # A tibble: 542 x 6
##    Country     ci_low ci_hi `1990` `2000` `2015`
##    <chr>        <int> <int>  <int>  <int>  <int>
##  1 Afghanistan    253   620     NA     NA    396
##  2 Afghanistan    745  1570     NA   1100     NA
##  3 Afghanistan    878  1950   1340     NA     NA
##  4 Albania         16    46     NA     NA     29
##  5 Albania         33    56     NA     43     NA
##  6 Albania         58    88     71     NA     NA
##  7 Algeria         82   244     NA     NA    140
##  8 Algeria        118   241     NA    170     NA
##  9 Algeria        141   327    216     NA     NA
## 10 Angola         221   988     NA     NA    477
## #  with 532 more rows
…
text: Write some text about dogs. (free long text)

time: What time is it? (time)

To get the dataset into wide format, where each question is in a separate column, use the following code:

q <- dataskills::experimentum_quests %>%
  pivot_wider(id_cols = session_id:user_age,
              names_from = q_name,
              values_from = dv) %>%
  type.convert(as.is = TRUE) %>%
  print()

## # A tibble: 24 x 15
##    session_id project_id quest_id user_id user_sex user_status user_age current
##         <int>      <int>    <int>   <int> <chr>    <chr>          <dbl>   <int>
##  1      34034          1        1   31105 female   guest           28.2       1
##  2      34104          1        1   31164 male     registered      19.4       1
##  3      34326          1        1   31392 female   guest           17         0
##  4      34343          1        1   31397 male     guest           22         1
##  5      34765          1        1   31770 female   guest           44         1
##  6      34796          1        1   31796 female   guest           35.9       0
##  7      34806          1        1   31798 female   guest           35         0
##  8      34822          1        1   31802 female   guest           58         1
##  9      34864          1        1   31820 male     guest           20         0
## 10      35014          1        1   31921 female   student         39.2       1
## #  with 14 more rows, and 7 more variables: past <int>, name <chr>,
## #   good <int>, country <chr>, text <chr>, good_borzoi <int>, time <chr>
…
