…
2. Remove the column `rank` from the dataset.

    <div class="solution"><button>Solution</button>
    
    ```r
      ukb %>%
        select(-rank)
    ```
    
    ```
    ## # A tibble: 227,449 x 4
    ##     year sex   name          n
    ##    <dbl> <chr> <chr>     <dbl>
    ##  1  1996 F     Sophie     7087
    ##  2  1996 F     Chloe      6824
    ##  3  1996 F     Jessica    6711
    ##  4  1996 F     Emily      6415
    ##  5  1996 F     Lauren     6299
    ##  6  1996 F     Hannah     5916
    ##  7  1996 F     Charlotte  5866
    ##  8  1996 F     Rebecca    5828
    ##  9  1996 F     Amy        5206
    ## 10  1996 F     Megan      4948
    ## # ... with 227,439 more rows
    ```
…
5. Sort the dataset by sex and then by year (descending) and then by rank (descending).

    <div class="solution"><button>Solution</button>
    
    ```r
    ukb %>%
      arrange(sex, desc(year), desc(rank))
    ```
    
    ```
    ## # A tibble: 227,449 x 5
    ##     year sex   name            n  rank
    ##    <dbl> <chr> <chr>       <dbl> <dbl>
    ##  1  2015 F     Aabidah         3  5730
    ##  2  2015 F     Aabish          3  5730
    ##  3  2015 F     Aaeesha         3  5730
    ##  4  2015 F     Aafreen         3  5730
    ##  5  2015 F     Aaiza           3  5730
    ##  6  2015 F     Aakifa          3  5730
    ##  7  2015 F     Aala            3  5730
    ##  8  2015 F     Aaliyah-Mai     3  5730
    ##  9  2015 F     Aaliyah-may     3  5730
    ## 10  2015 F     Aamena          3  5730
    ## # ... with 227,439 more rows
    ```
    </div>

6. Create a new column, `decade`, that contains the decade of birth (1990, 2000, 2010).  Hint: see `?floor`

    <div class="solution"><button>Solution</button>
    
    ```r
      ukb %>%
        mutate(decade = floor(year / 10) * 10)
    ```
    
    ```
    ## # A tibble: 227,449 x 6
    ##     year sex   name          n  rank decade
    ##    <dbl> <chr> <chr>     <dbl> <dbl>  <dbl>
    ##  1  1996 F     Sophie     7087     1   1990
    ##  2  1996 F     Chloe      6824     2   1990
    ##  3  1996 F     Jessica    6711     3   1990
    ##  4  1996 F     Emily      6415     4   1990
    ##  5  1996 F     Lauren     6299     5   1990
    ##  6  1996 F     Hannah     5916     6   1990
    ##  7  1996 F     Charlotte  5866     7   1990
    ##  8  1996 F     Rebecca    5828     8   1990
    ##  9  1996 F     Amy        5206     9   1990
    ## 10  1996 F     Megan      4948    10   1990
    ## # ... with 227,439 more rows
    ```
…
