…
```r
sim_data(0, 10, 40, 20)
```

```
## # A tibble: 40 x 5
##          Y    mu   eff A        err
##      <dbl> <dbl> <dbl> <fct>  <dbl>
##  1  24.8       0   -10 A1     34.8 
##  2  53.1       0   -10 A1     63.1 
##  3  40.3       0   -10 A1     50.3 
##  4 -34.6       0   -10 A1    -24.6 
##  5   7.48      0   -10 A1     17.5 
##  6  -0.912     0   -10 A1      9.09
##  7 -18.7       0   -10 A1     -8.75
##  8 -27.7       0   -10 A1    -17.7 
##  9 -26.1       0   -10 A1    -16.1 
## 10 -40.8       0   -10 A1    -30.8 
## # ... with 30 more rows
```
…
