…
```r
mess
```

```
## # A tibble: 26 x 7
##    junk  order    score letter good  min_max date      
##    <chr> <chr>    <dbl> <chr>  <chr> <chr>   <chr>     
##  1 junk  1       -1     a      1     1 - 2   2020-01-1 
##  2 junk  missing  0.72  b      1     2 - 3   2020-01-2 
##  3 junk  3       -0.62  c      FALSE 3 - 4   2020-01-3 
##  4 junk  4        2.03  d      T     4 - 5   2020-01-4 
##  5 junk  5       NA     e      1     5 - 6   2020-01-5 
##  6 junk  6        0.99  f      0     6 - 7   2020-01-6 
##  7 junk  7        0.03  g      T     7 - 8   2020-01-7 
##  8 junk  8        0.67  h      TRUE  8 - 9   2020-01-8 
##  9 junk  9        0.570 i      1     9 - 10  2020-01-9 
## 10 junk  10       0.9   j      T     10 - 11 2020-01-10
## # … with 16 more rows
```
…
Now `order` is an integer where "missing" is now `NA`, `good` is a logical value, where `0` and `F` are converted to `FALSE` and `1` and `T` are converted to `TRUE`, and `date` is a date type (adding leading zeros to the day). We'll learn in later chapters how to fix the other problems.


```r
tidiest
```

```
## # A tibble: 26 x 6
##    order score letter good  min_max date      
##    <int> <chr> <chr>  <lgl> <chr>   <date>    
##  1     1 -1    a      TRUE  1 - 2   2020-01-01
##  2    NA 0.72  b      TRUE  2 - 3   2020-01-02
##  3     3 -0.62 c      FALSE 3 - 4   2020-01-03
##  4     4 2.03  d      TRUE  4 - 5   2020-01-04
##  5     5 NA    e      TRUE  5 - 6   2020-01-05
##  6     6 0.99  f      FALSE 6 - 7   2020-01-06
##  7     7 0.03  g      TRUE  7 - 8   2020-01-07
##  8     8 0.67  h      TRUE  8 - 9   2020-01-08
##  9     9 0.57  i      TRUE  9 - 10  2020-01-09
## 10    10 0.9   j      TRUE  10 - 11 2020-01-10
## # … with 16 more rows
```
…
### Columns by Year

Spread out the maternal mortality rate by year.


```r
matmort_wide <- matmort2 %>%
  spread(key = Year, value = rate) %>%
  print()
```

```
## # A tibble: 542 x 6
##    Country     ci_low ci_hi `1990` `2000` `2015`
##    <chr>        <int> <int>  <int>  <int>  <int>
##  1 Afghanistan    253   620     NA     NA    396
##  2 Afghanistan    745  1570     NA   1100     NA
##  3 Afghanistan    878  1950   1340     NA     NA
##  4 Albania         16    46     NA     NA     29
##  5 Albania         33    56     NA     43     NA
##  6 Albania         58    88     71     NA     NA
##  7 Algeria         82   244     NA     NA    140
##  8 Algeria        118   241     NA    170     NA
##  9 Algeria        141   327    216     NA     NA
## 10 Angola         221   988     NA     NA    477
## # … with 532 more rows
```
…
To get the dataset into wide format, where each question is in a separate column, use the following code:


```r
q <- dataskills::experimentum_quests %>%
  pivot_wider(id_cols = session_id:user_age,
              names_from = q_name,
              values_from = dv) %>%
  type.convert(as.is = TRUE) %>%
  print()
```

```
## # A tibble: 24 x 15
##    session_id project_id quest_id user_id user_sex user_status user_age current
##         <int>      <int>    <int>   <int> <chr>    <chr>          <dbl>   <int>
##  1      34034          1        1   31105 female   guest           28.2       1
##  2      34104          1        1   31164 male     registered      19.4       1
##  3      34326          1        1   31392 female   guest           17         0
##  4      34343          1        1   31397 male     guest           22         1
##  5      34765          1        1   31770 female   guest           44         1
##  6      34796          1        1   31796 female   guest           35.9       0
##  7      34806          1        1   31798 female   guest           35         0
##  8      34822          1        1   31802 female   guest           58         1
##  9      34864          1        1   31820 male     guest           20         0
## 10      35014          1        1   31921 female   student         39.2       1
## # … with 14 more rows, and 7 more variables: past <int>, name <chr>,
## #   good <int>, country <chr>, text <chr>, good_borzoi <int>, time <chr>
```
…
